…
``` r
# Issue identified - outlier in Asia
gapminder %>%
  filter(year == year_min) %>%
  filter(continent == "Asia")
```

    ## # A tibble: 33 x 6
    ##    country          continent  year lifeExp       pop gdpPercap
    ##    <fct>            <fct>     <int>   <dbl>     <int>     <dbl>
    ##  1 Afghanistan      Asia       1952    28.8   8425333      779.
    ##  2 Bahrain          Asia       1952    50.9    120447     9867.
    ##  3 Bangladesh       Asia       1952    37.5  46886859      684.
    ##  4 Cambodia         Asia       1952    39.4   4693836      368.
    ##  5 China            Asia       1952    44   556263527      400.
    ##  6 Hong Kong, China Asia       1952    61.0   2125900     3054.
    ##  7 India            Asia       1952    37.4 372000000      547.
    ##  8 Indonesia        Asia       1952    37.5  82052000      750.
    ##  9 Iran             Asia       1952    44.9  17272000     3035.
    ## 10 Iraq             Asia       1952    45.3   5441766     4130.
    ## # … with 23 more rows
…
